%!PS-Adobe-3.0 EPSF-3.0
%%Creator: EpsGraphics 1.0.0 by Thomas Abeel, http://www.sourceforge.net/epsgraphics/
%%Title: GeoGebra, http://www.geogebra.org/
%%CreationDate: Thu Nov 21 13:46:27 CET 2013
%%BoundingBox: 0 0 216 140
%%DocumentData: Clean7Bit
%%LanguageLevel: 2
%%DocumentProcessColors: Black
%%ColorUsage: Color
%%Origin: 0 0
%%Pages: 1
%%Page: 1 1
%%EndComments

gsave
0.0 140.0 translate
0.0 0.0 0.0 setrgbcolor
0.0 0.0 0.0 setrgbcolor
gsave
newpath
0.0 -0.0 moveto
216.56692913385822 -0.0 lineto
216.56692913385822 -140.59842519685037 lineto
0.0 -140.59842519685037 lineto
0.0 -0.0 lineto
closepath
clip
newpath
1.0 1.0 1.0 setrgbcolor
newpath
0.0 -0.0 moveto
216.56692913385822 -0.0 lineto
216.56692913385822 -140.59842519685037 lineto
0.0 -140.59842519685037 lineto
0.0 -0.0 lineto
closepath
fill
newpath
0.0 0.0 0.0 setrgbcolor
0.0 0.0 0.0 setrgbcolor
3.0 setlinewidth
10.0 setmiterlimit
1 setlinejoin
1 setlinecap
[ ] 0 setdash
newpath
104.64935725203284 -57.14357626381169 moveto
104.64935725203284 -81.18855042835494 85.15705436536284 -100.68085331502493 61.11208020081958 -100.68085331502493 curveto
37.06710603627632 -100.68085331502493 17.57480314960631 -81.18855042835494 17.57480314960631 -57.14357626381169 curveto
17.57480314960631 -33.09860209926844 37.06710603627632 -13.606299212598438 61.11208020081958 -13.606299212598438 curveto
85.15705436536284 -13.606299212598438 104.64935725203284 -33.09860209926844 104.64935725203284 -57.14357626381169 curveto
closepath
stroke
newpath
0.0 0.0 0.0 setrgbcolor
0.0 0.0 0.0 setrgbcolor
3.0 setlinewidth
10.0 setmiterlimit
1 setlinejoin
1 setlinecap
[ ] 0 setdash
newpath
187.65354330708664 -83.4548489330387 moveto
187.65354330708664 -107.49982309758195 168.16124042041662 -126.99212598425196 144.11626625587337 -126.99212598425196 curveto
120.07129209133012 -126.99212598425196 100.5789892046601 -107.49982309758195 100.5789892046601 -83.4548489330387 curveto
100.5789892046601 -59.40987476849546 120.07129209133012 -39.91757188182546 144.11626625587337 -39.91757188182546 curveto
168.16124042041662 -39.91757188182546 187.65354330708664 -59.40987476849546 187.65354330708664 -83.4548489330387 curveto
closepath
stroke
newpath
0.0 0.0 0.0 setrgbcolor
3.0 setlinewidth
10.0 setmiterlimit
1 setlinejoin
1 setlinecap
[ ] 0 setdash
newpath
17.574803149606307 -13.606299212598438 moveto
187.65354330708664 -13.606299212598438 lineto
stroke
newpath
0.0 0.0 0.0 setrgbcolor
3.0 setlinewidth
10.0 setmiterlimit
1 setlinejoin
1 setlinecap
[ ] 0 setdash
newpath
187.65354330708664 -13.606299212598438 moveto
187.65354330708664 -126.99212598425196 lineto
stroke
newpath
0.0 0.0 0.0 setrgbcolor
3.0 setlinewidth
10.0 setmiterlimit
1 setlinejoin
1 setlinecap
[ ] 0 setdash
newpath
187.65354330708664 -126.99212598425196 moveto
17.574803149606307 -126.99212598425196 lineto
stroke
newpath
0.0 0.0 0.0 setrgbcolor
3.0 setlinewidth
10.0 setmiterlimit
1 setlinejoin
1 setlinecap
[ ] 0 setdash
newpath
17.574803149606307 -126.99212598425196 moveto
17.574803149606307 -13.606299212598438 lineto
stroke
newpath
0.26666668 0.26666668 0.26666668 setrgbcolor
3.0 setlinewidth
10.0 setmiterlimit
1 setlinejoin
1 setlinecap
[ ] 0 setdash
newpath
62.81286760239438 -57.14357626381169 moveto
62.81286760239438 -58.082895208405795 62.05139914541368 -58.84436366538649 61.11208020081958 -58.84436366538649 curveto
60.17276125622547 -58.84436366538649 59.41129279924478 -58.082895208405795 59.41129279924478 -57.14357626381169 curveto
59.41129279924478 -56.20425731921758 60.17276125622547 -55.44278886223689 61.11208020081958 -55.44278886223689 curveto
62.05139914541368 -55.44278886223689 62.81286760239438 -56.20425731921758 62.81286760239438 -57.14357626381169 curveto
closepath
fill
newpath
0.0 0.0 0.0 setrgbcolor
1.0 setlinewidth
10.0 setmiterlimit
1 setlinejoin
1 setlinecap
[ ] 0 setdash
newpath
62.81286760239438 -57.14357626381169 moveto
62.81286760239438 -58.082895208405795 62.05139914541368 -58.84436366538649 61.11208020081958 -58.84436366538649 curveto
60.17276125622547 -58.84436366538649 59.41129279924478 -58.082895208405795 59.41129279924478 -57.14357626381169 curveto
59.41129279924478 -56.20425731921758 60.17276125622547 -55.44278886223689 61.11208020081958 -55.44278886223689 curveto
62.05139914541368 -55.44278886223689 62.81286760239438 -56.20425731921758 62.81286760239438 -57.14357626381169 curveto
closepath
stroke
newpath
0.26666668 0.26666668 0.26666668 setrgbcolor
1.0 setlinewidth
10.0 setmiterlimit
1 setlinejoin
1 setlinecap
[ ] 0 setdash
newpath
145.81705365744818 -83.4548489330387 moveto
145.81705365744818 -84.39416787763281 145.05558520046748 -85.1556363346135 144.11626625587337 -85.1556363346135 curveto
143.17694731127926 -85.1556363346135 142.41547885429858 -84.39416787763281 142.41547885429858 -83.4548489330387 curveto
142.41547885429858 -82.51552998844461 143.17694731127926 -81.7540615314639 144.11626625587337 -81.7540615314639 curveto
145.05558520046748 -81.7540615314639 145.81705365744818 -82.51552998844461 145.81705365744818 -83.4548489330387 curveto
closepath
fill
newpath
0.0 0.0 0.0 setrgbcolor
1.0 setlinewidth
10.0 setmiterlimit
1 setlinejoin
1 setlinecap
[ ] 0 setdash
newpath
145.81705365744818 -83.4548489330387 moveto
145.81705365744818 -84.39416787763281 145.05558520046748 -85.1556363346135 144.11626625587337 -85.1556363346135 curveto
143.17694731127926 -85.1556363346135 142.41547885429858 -84.39416787763281 142.41547885429858 -83.4548489330387 curveto
142.41547885429858 -82.51552998844461 143.17694731127926 -81.7540615314639 144.11626625587337 -81.7540615314639 curveto
145.05558520046748 -81.7540615314639 145.81705365744818 -82.51552998844461 145.81705365744818 -83.4548489330387 curveto
closepath
stroke
newpath
grestore
grestore
showpage

%%EOF