\BOOKMARK [1][-]{section.1}{Pr\351sentation alg\351brique}{}% 1
\BOOKMARK [1][-]{section.2}{Interpr\351tation g\351om\351trique des nombres complexes}{}% 2
\BOOKMARK [1][-]{section.3}{Forme trigonom\351trique et forme exponentielle}{}% 3
\BOOKMARK [2][-]{subsection.3.5}{Utilisation en g\351om\351trie}{section.3}% 4
\BOOKMARK [2][-]{subsection.3.6}{Transformation g\351om\351trique}{section.3}% 5
