verbatimtex
	%&latex
	\documentclass[12pt]{article}
	\usepackage[intlimits]{amsmath}
	\usepackage{amsfonts}
	\usepackage{lmodern}
	\begin{document}
etex
beginfig(1);u=1cm;defaultscale := 1.2;
draw (0u,0u) -- (8.5u,0u) -- (8.5u,3.8u) -- (0u,3.8u) -- cycle ;
draw (1.5u,0u) -- (1.5u,3.8u);
draw (0u,3.0u) -- (8.5u,3.0u);
draw (0u,0.0u) -- (8.5u,0.0u);
label(btex $x$ etex, (0.75u,3.4u));
label(btex -3 etex, (1.85u,3.4u));
label(btex $3$ etex, (8.15u,3.4u));
label(btex $-1$ etex, (5.0u,3.4u));
label(btex $y'$ etex, (0.75u,1.5u));
label(btex 0 etex, (1.85u,0.225u));
drawarrow (2.2u,0.425u)..(4.65u,2.4475u);
label(btex 2 etex, (5.0u,2.6475u));
drawarrow (5.35u,2.4475u)..(7.8u,0.425u);
label(btex -3 etex, (8.15u,0.225u));
endfig;end;