%!PS-Adobe-3.0 EPSF-3.0
%%Creator: GIMP PostScript file plugin V 1,17 by Peter Kirchgessner
%%Title: livret_fig9.eps
%%CreationDate: Sat Mar  2 11:07:59 2013
%%DocumentData: Clean7Bit
%%LanguageLevel: 2
%%Pages: 1
%%BoundingBox: 14 14 555 290
%%EndComments
%%BeginProlog
% Use own dictionary to avoid conflicts
10 dict begin
%%EndProlog
%%Page: 1 1
% Translate for offset
14.173228346456694 14.173228346456694 translate
% Translate to begin of first scanline
0 275 translate
540 -275 scale
% Image geometry
540 275 8
% Transformation matrix
[ 540 0 0 275 0 0 ]
% Strings to hold RGB-samples per scanline
/rstr 540 string def
/gstr 540 string def
/bstr 540 string def
{currentfile /ASCII85Decode filter /RunLengthDecode filter rstr readstring pop}
{currentfile /ASCII85Decode filter /RunLengthDecode filter gstr readstring pop}
{currentfile /ASCII85Decode filter /RunLengthDecode filter bstr readstring pop}
true 3
%%BeginData:        26753 ASCII Bytes
colorimage
k5PH`9S*4ps+13%s*t~>
k5PH`9S*4ps+13%s*t~>
k5PH`9S*4ps+13%s*t~>
k5PH`9S*4ps+13%s*t~>
k5PH`9S*4ps+13%s*t~>
k5PH`9S*4ps+13%s*t~>
k5PH`9S*4ps+13%s*t~>
k5PH`9S*4ps+13%s*t~>
k5PH`9S*4ps+13%s*t~>
k5PH`9S*4ps+13%s*t~>
k5PH`9S*4ps+13%s*t~>
k5PH`9S*4ps+13%s*t~>
k5PH`9S*4ps+13%s*t~>
k5PH`9S*4ps+13%s*t~>
k5PH`9S*4ps+13%s*t~>
k5PH`9S*4ps+13%s*t~>
k5PH`9S*4ps+13%s*t~>
k5PH`9S*4ps+13%s*t~>
k5PH`9S*4ps+13%s*t~>
k5PH`9S*4ps+13%s*t~>
k5PH`9S*4ps+13%s*t~>
k5PH`9S*4ps+13%s*t~>
k5PH`9S*4ps+13%s*t~>
k5PH`9S*4ps+13%s*t~>
k5PH`9S*4ps+13%s*t~>
k5PH`9S*4ps+13%s*t~>
k5PH`9S*4ps+13%s*t~>
k5PH`9S*4ps+13%s*t~>
k5PH`9S*4ps+13%s*t~>
k5PH`9S*4ps+13%s*t~>
k5PH`9S*4ps+13%s*t~>
k5PH`9S*4ps+13%s*t~>
k5PH`9S*4ps+13%s*t~>
k5PH`9S*4ps+13%s*t~>
k5PH`9S*4ps+13%s*t~>
k5PH`9S*4ps+13%s*t~>
k5PH`9S*4ps+13%s*t~>
k5PH`9S*4ps+13%s*t~>
k5PH`9S*4ps+13%s*t~>
k5PH`9S*4ps+13%s*t~>
k5PH`9S*4ps+13%s*t~>
k5PH`9S*4ps+13%s*t~>
k5PH`9S*4ps+13%s*t~>
k5PH`9S*4ps+13%s*t~>
k5PH`9S*4ps+13%s*t~>
k5PH`9S*4ps+13%s*t~>
k5PH`9S*4ps+13%s*t~>
k5PH`9S*4ps+13%s*t~>
k5PH`9S*4ps+13%s*t~>
k5PH`9S*4ps+13%s*t~>
k5PH`9S*4ps+13%s*t~>
k5PH`9S*4ps+13%s*t~>
k5PH`9S*4ps+13%s*t~>
k5PH`9S*4ps+13%s*t~>
k5PH`9S*4ps+13%s*t~>
k5PH`9S*4ps+13%s*t~>
k5PH`9S*4ps+13%s*t~>
k5PH`9[s(Irqc9TjjikuJcC<$JcE4ZJ,~>
k5PH`9[s(Irqc9TjjikuJcC<$JcE4ZJ,~>
k5PH`9[s(Irqc9TjjikuJcC<$JcE4ZJ,~>
k5PH`9[s(IrUA[bY'eRgJcC<$JcE4ZJ,~>
k5PH`9[s(IrUA[bY'eRgJcC<$JcE4ZJ,~>
k5PH`9[s(IrUA[bY'eRgJcC<$JcE4ZJ,~>
k5PH`9[s(HgBn5m&:E/^s+13$s0hrX~>
k5PH`9[s(HgBn5m&:E/^s+13$s0hrX~>
k5PH`9[s(HgBn5m&:E/^s+13$s0hrX~>
k5PH`9[s(Hn="J_%&;p8s+13$s0hrX~>
k5PH`9[s(Hn="J_%&;p8s+13$s0hrX~>
k5PH`9[s(Hn="J_%&;p8s+13$s0hrX~>
k5PH`9[`qD\6]]emt(Lis+13Ys*t~>
k5PH`9[`qD\6]]emt(Lis+13Ys*t~>
k5PH`9[`qD\6]]emt(Lis+13Ys*t~>
k5PH`9[`qDQq%bQq18Qss+13Ys*t~>
k5PH`9[`qDQq%bQq18Qss+13Ys*t~>
k5PH`9[`qDQq%bQq18Qss+13Ys*t~>
k5PH`9[`qD5qm!Nrdk*#s+13Ys*t~>
k5PH`9[`qD5qm!Nrdk*#s+13Ys*t~>
k5PH`9[`qD5qm!Nrdk*#s+13Ys*t~>
k5PH`9[s(FqrTUsQ\#0fs+13Ws*t~>
k5PH`9[s(FqrTUsQ\#0fs+13Ws*t~>
k5PH`9[s(FqrTUsQ\#0fs+13Ws*t~>
k5PH`9[s(NpW"a[^An61o]=c^pjrHrs+13_s*t~>
k5PH`9[s(NpW"a[^An61o]=c^pjrHrs+13_s*t~>
k5PH`9[s(NpW"a[^An61o]=c^pjrHrs+13_s*t~>
k5PH`9[s(On<tM+h#IE;]kA]Ug&-F$JcC<$^&NT~>
k5PH`9[s(On<tM+h#IE;]kA]Ug&-F$JcC<$^&NT~>
k5PH`9[s(On<tM+h#IE;]kA]Ug&-F$JcC<$^&NT~>
k5PH`9[s(OhAeJ8q>\mgkJTh@ReVI6JcC<$^&NT~>
k5PH`9[s(OhAeJ8q>\mgkJTh@ReVI6JcC<$^&NT~>
k5PH`9[s(OhAeJ8q>\mgkJTh@ReVI6JcC<$^&NT~>
k5PH`9\'.Qp<*GAZ2NY7iV1_l.#dnOs+13$s1SG_~>
k5PH`9\'.Qp<*GAZ2NY7iV1_l.#dnOs+13$s1SG_~>
k5PH`9\'.Qp<*GAZ2NY7iV1_l.#dnOs+13$s1SG_~>
k5PH`9\'.Ql*UMGbOWU>s8Tr).?O:Ts+13$s1SG_~>
k5PH`9\'.Ql*UMGbOWU>s8Tr).?O:Ts+13$s1SG_~>
k5PH`9\'.Ql*UMGbOWU>s8Tr).?O:Ts+13$s1SG_~>
k5PH`9\'.HduOL"\ZPi1"I_8*ZMB(OJcC<$^&NT~>
k5PH`9\'.HduOL"\ZPi1"I_8*ZMB(OJcC<$^&NT~>
k5PH`9\'.HduOL"\ZPi1"I_8*ZMB(OJcC<$^&NT~>
k5PH`9\'.HYuLd8VVD(L"=F[Cg\cX&JcC<$^&NT~>
k5PH`9\'.HYuLd8VVD(L"=F[Cg\cX&JcC<$^&NT~>
k5PH`9\'.HYuLd8VVD(L"=F[Cg\cX&JcC<$^&NT~>
k5PH`9\04SnrG1!Cprp7s7ks])Ii::JcC<$JcEF`J,~>
k5PH`9\04SnrG1!Cprp7s7ks])Ii::JcC<$JcEF`J,~>
k5PH`9\04SnrG1!Cprp7s7ks])Ii::JcC<$JcEF`J,~>
k5PH`9\04Ih.m#oQeVN>"RaP87$W?'JcC<$]DmB~>
k5PH`9\04Ih.m#oQeVN>"RaP87$W?'JcC<$]DmB~>
k5PH`9\04Ih.m#oQeVN>"RaP87$W?'JcC<$]DmB~>
k5PH`9\04HZVqKaj8Ju\gR8+_aFXABs+13^s*t~>
k5PH`9\04HZVqKaj8Ju\gR8+_aFXABs+13^s*t~>
k5PH`9\04HZVqKaj8Ju\gR8+_aFXABs+13^s*t~>
k5PH`9\04HO$4Q!o)8Rk[P@i?idq,\s+13^s*t~>
k5PH`9\04HO$4Q!o)8Rk[P@i?idq,\s+13^s*t~>
k5PH`9\04HO$4Q!o)8Rk[P@i?idq,\s+13^s*t~>
k5PH`9\B@LrV0bZ7-jaLrs/1b!$S6/nG\"=JcC<$^&NT~>
k5PH`9\B@LrV0bZ7-jaLrs/1b!$S6/nG\"=JcC<$^&NT~>
k5PH`9\B@LrV0bZ7-jaLrs/1b!$S6/nG\"=JcC<$^&NT~>
k5PH`9\B@JqWT.eO8T"_h1boCan!gVJcC<$JcEF`J,~>
k5PH`9\B@JqWT.eO8T"_h1boCan!gVJcC<$JcEF`J,~>
k5PH`9\B@JqWT.eO8T"_h1boCan!gVJcC<$JcEF`J,~>
k5PH`9\B@Jn$Es=`;KW?_/'+_YdMjUJcC<$JcEF`J,~>
k5PH`9\B@Jn$Es=`;KW?_/'+_YdMjUJcC<$JcEF`J,~>
k5PH`9\B@Jn$Es=`;KW?_/'+_YdMjUJcC<$JcEF`J,~>
k5PH`9\B@JjFn7`h>I9X^hWqK_:S&QJcC<$JcEF`J,~>
k5PH`9\B@JjFn7`h>I9X^hWqK_:S&QJcC<$JcEF`J,~>
k5PH`9\B@JjFn7`h>I9X^hWqK_:S&QJcC<$JcEF`J,~>
k5PH`9\B@Jk)E!"nbiCjc]:;sg%0dpJcC<$]DmB~>
k5PH`9\B@Jk)E!"nbiCjc]:;sg%0dpJcC<$]DmB~>
k5PH`9\B@Jk)E!"nbiCjc]:;sg%0dpJcC<$]DmB~>
k5PH`9S*4ps+13%s*t~>
k5PH`9S*4ps+13%s*t~>
k5PH`9S*4ps+13%s*t~>
k5PH`9S*4ps+13%s*t~>
k5PH`9S*4ps+13%s*t~>
k5PH`9S*4ps+13%s*t~>
k5PH`9S*4ps+13%s*t~>
k5PH`9S*4ps+13%s*t~>
k5PH`9S*4ps+13%s*t~>
k5PH`9S*4ps+13%s*t~>
k5PH`9S*4ps+13%s*t~>
k5PH`9S*4ps+13%s*t~>
k5PH`9S*4ps+13%s*t~>
k5PH`9S*4ps+13%s*t~>
k5PH`9S*4ps+13%s*t~>
k5PH`9S*4ps+13%s*t~>
k5PH`9S*4ps+13%s*t~>
k5PH`9S*4ps+13%s*t~>
k5PH`9S*4ps+13%s*t~>
k5PH`9S*4ps+13%s*t~>
k5PH`9S*4ps+13%s*t~>
k5PH`9S*4ps+13%s*t~>
k5PH`9S*4ps+13%s*t~>
k5PH`9S*4ps+13%s*t~>
k5PH`9S*4ps+13%s*t~>
k5PH`9S*4ps+13%s*t~>
k5PH`9S*4ps+13%s*t~>
k5PH`9S*4ps+13%s*t~>
k5PH`9S*4ps+13%s*t~>
k5PH`9S*4ps+13%s*t~>
k5PH`9S*4ps+13%s*t~>
k5PH`9S*4ps+13%s*t~>
k5PH`9S*4ps+13%s*t~>
k5PH`9S*4ps+13%s*t~>
k5PH`9S*4ps+13%s*t~>
k5PH`9S*4ps+13%s*t~>
k5PH`9S*4ps+13%s*t~>
k5PH`9S*4ps+13%s*t~>
k5PH`9S*4ps+13%s*t~>
k5PH`9S*4ps+13%s*t~>
k5PH`9S*4ps+13%s*t~>
k5PH`9S*4ps+13%s*t~>
k5PH`9S*4ps+13%s*t~>
k5PH`9S*4ps+13%s*t~>
k5PH`9S*4ps+13%s*t~>
k5PH`9S*4ps+13%s*t~>
k5PH`9S*4ps+13%s*t~>
k5PH`9S*4ps+13%s*t~>
k5PH`9S*4ps+13frr?3<$@i~>
k5PH`9S*4ps+13frr?3<$@i~>
k5PH`9S*4ps+13frr?3<$@i~>
k5PH`9S*4ps+13trrC^DAH7S'RXb~>
k5PH`9S*4ps+13trrC^DAH7S'RXb~>
k5PH`9S*4ps+13trrC^DAH7S'RXb~>
k5PH`9S*4ps+14(rrCFA^]:#!56/O9s*t~>
k5PH`9S*4ps+14(rrCFA^]:#!56/O9s*t~>
k5PH`9S*4ps+14(rrCFA^]:#!56/O9s*t~>
k5PH`9S*4ps+14(rr>7Y!!#<ks*t~>
k5PH`9S*4ps+14(rr>7Y!!#<ks*t~>
k5PH`9S*4ps+14(rr>7Y!!#<ks*t~>
k5PH`9S*4ps+14,rr>Fc*<<D@iW/8Ms*t~>
k5PH`9S*4ps+14,rr>Fc*<<D@iW/8Ms*t~>
k5PH`9S*4ps+14,rr>Fc*<<D@iW/8Ms*t~>
k5PH`9S*4ps+146rrCLBGQ<HsLB->6s*t~>
k5PH`9S*4ps+146rrCLBGQ<HsLB->6s*t~>
k5PH`9S*4ps+146rrCLBGQ<HsLB->6s*t~>
k5PH`9S*4ps+14:rrDHcdf>m4/-+G%s*t~>
k5PH`9S*4ps+14:rrDHcdf>m4/-+G%s*t~>
k5PH`9S*4ps+14:rrDHcdf>m4/-+G%s*t~>
k5PH`9S*4ps+14:rrAGc!!$#hs*t~>
k5PH`9S*4ps+14:rrAGc!!$#hs*t~>
k5PH`9S*4ps+14:rrAGc!!$#hs*t~>
k5PH`9S*4ps+14>rrAPf0*#tjciE!os*t~>
k5PH`9S*4ps+14>rrAPf0*#tjciE!os*t~>
k5PH`9S*4ps+14>rrAPf0*#tjciE!os*t~>
k5PH`9S*4ps+14CrrA>_M?&2+FTAP2s*t~>
k5PH`9S*4ps+14CrrA>_M?&2+FTAP2s*t~>
k5PH`9S*4ps+14CrrA>_M?&2+FTAP2s*t~>
k5PH`9S*4ps+14Gs8D$Z/c?RfLQqgh~>
k5PH`9S*4ps+14Gs8D$Z/c?RfLQqgh~>
k5PH`9S*4ps+14Gs8D$Z/c?RfLQqgh~>
k5PH`9S*4ps+14Grr<6%!!)2Cs*t~>
k5PH`9S*4ps+14Grr<6%!!)2Cs*t~>
k5PH`9S*4ps+14Grr<6%!!)2Cs*t~>
k5PH`9S*4ps+14LrrD`j5leRs^&[tis*t~>
k5PH`9S*4ps+14LrrD`j5leRs^&[tis*t~>
k5PH`9S*4ps+14LrrD`j5leRs^&[tis*t~>
k5PH`9S*4ps+:7NoDY6[RJgUqr/:T*~>
k5PH`9S*4ps+:7NoDY6[RJgUqr/:T*~>
k5PH`9S*4ps+:7NoDY6[RJgUqr/:T*~>
k5PH`9S*4ps+gUSqu-6hg&;6W'o)a=~>
k5PH`9S*4ps+gUSqu-6hg&;6W'o)a=~>
k5PH`9S*4ps+gUSqu-6hg&;6W'o)a=~>
k5PH`9S*4ps+gUSEW#k;+G0WD~>
k5PH`9S*4ps+gUSEW#k;+G0WD~>
k5PH`9S*4ps+gUSEW#k;+G0WD~>
k5PH`9S*4ps,6mWPQ"J\K`.tP[Y"O0~>
k5PH`9S*4ps,6mWPQ"J\K`.tP[Y"O0~>
k5PH`9S*4ps,6mWPQ"J\K`.tP[Y"O0~>
k5PH`9S*4ps,R*]j0#P+r_W[$JcG]KJ,~>
k5PH`9S*4ps,R*]j0#P+r_W[$JcG]KJ,~>
k5PH`9S*4ps,R*]j0#P+r_W[$JcG]KJ,~>
k5PH`9S*4ps,R*]VZ6^iJcGQGJ,~>
k5PH`9S*4ps,R*]VZ6^iJcGQGJ,~>
k5PH`9S*4ps,R*]VZ6^iJcGQGJ,~>
k5PH`9S*4ps,m<cnHoV-p%A35s7u\F~>
k5PH`9S*4ps,m<cnHoV-p%A35s7u\F~>
k5PH`9S*4ps,m<cnHoV-p%A35s7u\F~>
k5PH`9S*4ps-*HdLh17gR_44OpA]X~>
k5PH`9S*4ps-*HdLh17gR_44OpA]X~>
k5PH`9S*4ps-*HdLh17gR_44OpA]X~>
k5PH`9S*4ps-N`cb5T0X>X(i3s7?8@~>
k5PH`9S*4ps-N`cb5T0X>X(i3s7?8@~>
k5PH`9S*4ps-N`cb5T0X>X(i3s7?8@~>
k5PH`9S*4ps-N`c-iO)G`I\'Zs*t~>
k5PH`9S*4ps-N`c-iO)G`I\'Zs*t~>
k5PH`9S*4ps-N`c-iO)G`I\'Zs*t~>
k5PH`9S*4ps.0/i_#,2Q`;\`rq18S9s*t~>
k5PH`9S*4ps.0/i_#,2Q`;\`rq18S9s*t~>
k5PH`9S*4ps.0/i_#,2Q`;\`rq18S9s*t~>
k5PH`9S*4ps.B;mH$F`7LB-^ms6]i:~>
k5PH`9S*4ps.B;mH$F`7LB-^ms6]i:~>
k5PH`9S*4ps.B;mH$F`7LB-^ms6]i:~>
k5PH`9S*4ps.]Msi7$.-/7sJ5kPp&~>
k5PH`9S*4ps.]Msi7$.-/7sJ5kPp&~>
k5PH`9S*4ps.]Msi7$.-/7sJ5kPp&~>
k5PH`9S*4ps.]Mq9)ntjJcFj3J,~>
k5PH`9S*4ps.]Mq9)ntjJcFj3J,~>
k5PH`9S*4ps.]Mq9)ntjJcFj3J,~>
k5PH`9S*4ps/#`!V_9]sd*R@DjSs`~>
k5PH`9S*4ps/#`!V_9]sd*R@DjSs`~>
k5PH`9S*4ps/#`!V_9]sd*R@DjSs`~>
k5PH`9S*4ps/>r%mu!!RF`l8ds5O'/~>
k5PH`9S*4ps/>r%mu!!RF`l8ds5O'/~>
k5PH`9S*4ps/>r%mu!!RF`l8ds5O'/~>
k5PH`9S*4ps/Q)&l/g#*)LI&8huA3~>
k5PH`9S*4ps/Q)&l/g#*)LI&8huA3~>
k5PH`9S*4ps/Q)&l/g#*)LI&8huA3~>
k5PH`9S*4ps/Q)#-3,9As4mX)~>
k5PH`9S*4ps/Q)#-3,9As4mX)~>
k5PH`9S*4ps/Q)#-3,9As4mX)~>
k5PH`9S*4ps/l;)P<hL8^;kg)h#Dm~>
k5PH`9S*4ps/l;)P<hL8^;kg)h#Dm~>
k5PH`9S*4ps/l;)P<hL8^;kg)h#Dm~>
k5PH`9S*4ps02M-j.)We@q4_Rs4[L'~>
k5PH`9S*4ps02M-j.)We@q4_Rs4[L'~>
k5PH`9S*4ps02M-j.)We@q4_Rs4[L'~>
k5PH`9S*4ps0D\)pB.c.#aBo?fDg@~>
k5PH`9S*4ps0D\)pB.c.#aBo?fDg@~>
k5PH`9S*4ps0D\)pB.c.#aBo?fDg@~>
k5PH`9S*4ps0DY+!<>ZAs4%(!~>
k5PH`9S*4ps0DY+!<>ZAs4%(!~>
k5PH`9S*4ps0DY+!<>ZAs4%(!~>
k5PH`9S*4ps0_k1Ki:pOXM]VheGk%~>
k5PH`9S*4ps0_k1Ki:pOXM]VheGk%~>
k5PH`9S*4ps0_k1Ki:pOXM]VheGk%~>
k5PH`9S*4ps1&(5goder;,R=Ds3gpt~>
k5PH`9S*4ps1&(5goder;,R=Ds3gpt~>
k5PH`9S*4ps1&(5goder;,R=Ds3gpt~>
k5PH`9S*4ps1&(2OoPKiJcF'rJ,~>
k5PH`9S*4ps1&(2OoPKiJcF'rJ,~>
k5PH`9S*4ps1&(2OoPKiJcF'rJ,~>
k5PH`9S*4ps1A:8g^4C+p%A66s3L^q~>
k5PH`9S*4ps1A:8g^4C+p%A66s3L^q~>
k5PH`9S*4ps1A:8g^4C+p%A66s3L^q~>
k5PH`9S*4ps1SF9HY%&_R`0jXbl<1~>
k5PH`9S*4ps1SF9HY%&_R`0jXbl<1~>
k5PH`9S*4ps1SF9HY%&_R`0jXbl<1~>
k5PH`9S*4ps1nX<gVCU%5?`X<ao?k~>
k5PH`9S*4ps1nX<gVCU%5?`X<ao?k~>
k5PH`9S*4ps1nX<gVCU%5?`X<ao?k~>
k5PH`9S*4ps1nX:D#aRjJcEdjJ,~>
k5PH`9S*4ps1nX:D#aRjJcEdjJ,~>
k5PH`9S*4ps1nX:D#aRjJcEdjJ,~>
k5PH`9S*4ps24j@^)S,Qj5^#fs2Y.i~>
k5PH`9S*4ps24j@^)S,Qj5^#fs2Y.i~>
k5PH`9S*4ps24j@^)S,Qj5^#fs2Y.i~>
k5PH`9S*4ps2G$<GQW>KLWk>L`;b>~>
k5PH`9S*4ps2G$<GQW>KLWk>L`;b>~>
k5PH`9S*4ps2G$<GQW>KLWk>L`;b>~>
k5PH`9S*4ps2b3Dhp^")/89\8_>f#~>
k5PH`9S*4ps2b3Dhp^")/89\8_>f#~>
k5PH`9S*4ps2b3Dhp^")/89\8_>f#~>
k5PH`9S*4ps2b3A8,rX@s1\M`~>
k5PH`9S*4ps2b3A8,rX@s1\M`~>
k5PH`9S*4ps2b3A8,rX@s1\M`~>
k5PH`9S*4ps3(EGV(XKrd*R@D^Ai]~>
k5PH`9S*4ps3(EGV(XKrd*R@D^Ai]~>
k5PH`9S*4ps3(EGV(XKrd*R@D^Ai]~>
k5PH`9S*4ps3CWKmYZmQF`l>fs1JA^~>
k5PH`9S*4ps3CWKmYZmQF`l>fs1JA^~>
k5PH`9S*4ps3CWKmYZmQF`l>fs1JA^~>
k5PH`9S*4ps3UcLkiKi')L[2:\c70~>
k5PH`9S*4ps3UcLkiKi')L[2:\c70~>
k5PH`9S*4ps3UcLkiKi')L[2:\c70~>
k5PH`9S*4ps3UcI,60$@s0hrX~>
k5PH`9S*4ps3UcI,60$@s0hrX~>
k5PH`9S*4ps3UcI,60$@s0hrX~>
k5PH`9S*4ps3puOO[2:8^;tm*[f:j~>
k5PH`9S*4ps3puOO[2:8^;tm*[f:j~>
k5PH`9S*4ps3puOO[2:8^;tm*[f:j~>
k5PH`9S*4ps4%&OU3gB[l@JuBs*t~>
k5PH`9S*4ps4%&OU3gB[l@JuBs*t~>
k5PH`9S*4ps4%&OU3gB[l@JuBs*t~>
k5PH`9S*4ps4@8RqY0_$Q@](@s*t~>
k5PH`9S*4ps4@8RqY0_$Q@](@s*t~>
k5PH`9S*4ps4@8RqY0_$Q@](@s*t~>
k5PH`9S*4ps4@8Q=TAHiJcDtSJ,~>
k5PH`9S*4ps4@8Q=TAHiJcDtSJ,~>
k5PH`9S*4ps4@8Q=TAHiJcDtSJ,~>
k5PH`9S*4ps4[JW^f+0kXK;8Ls02NR~>
k5PH`9S*4ps4[JW^f+0kXK;8Ls02NR~>
k5PH`9S*4ps4[JW^f+0kXK;8Ls02NR~>
k5PH`9S*4ps5!\Zq6$lZ;,P2]s/l<O~>
k5PH`9S*4ps5!\Zq6$lZ;,P2]s/l<O~>
k5PH`9S*4ps5!\Zq6$lZ;,P2]s/l<O~>
k5PH`9S*4ps5!\WlMpojJcDbMJ,~>
k5PH`9S*4ps5!\WlMpojJcDbMJ,~>
k5PH`9S*4ps5!\WlMpojJcDbMJ,~>
k5PH`9S*4ps53h[4:3,%p%a1=WrIS~>
k5PH`9S*4ps53h[4:3,%p%a1=WrIS~>
k5PH`9S*4ps53h[4:3,%p%a1=WrIS~>
k5PH`9S*4ps5Et\k[fgDU4N?Bs*t~>
k5PH`9S*4ps5Et\k[fgDU4N?Bs*t~>
k5PH`9S*4ps5Et\k[fgDU4N?Bs*t~>
k5PH`9S*4ps5X+^ahY#Cf7Esus*t~>
k5PH`9S*4ps5X+^ahY#Cf7Esus*t~>
k5PH`9S*4ps5X+^ahY#Cf7Esus*t~>
k5PH`9S*4ps5X+\+oj!As.fUE~>
k5PH`9S*4ps5X+\+oj!As.fUE~>
k5PH`9S*4ps5X+\+oj!As.fUE~>
k5PH`9S*4ps5s=bHQ4$Hj6)!nU]5i~>
k5PH`9S*4ps5s=bHQ4$Hj6)!nU]5i~>
k5PH`9S*4ps5s=bHQ4$Hj6)!nU]5i~>
k5PH`9S*4ps69Off6DOkLPP>Ls.TIC~>
k5PH`9S*4ps69Off6DOkLPP>Ls.TIC~>
k5PH`9S*4ps69Off6DOkLPP>Ls.TIC~>
k5PH`9S*4ps6TairmT>i/1d]Ms.97@~>
k5PH`9S*4ps6TairmT>i/1d]Ms.97@~>
k5PH`9S*4ps6TairmT>i/1d]Ms.97@~>
k5PH`9S*4ps6Tafqu?^jJcD5>J,~>
k5PH`9S*4ps6Tafqu?^jJcD5>J,~>
k5PH`9S*4ps6Tafqu?^jJcD5>J,~>
k5PH`9S*4ps6]ghZ8'_QhLY]rs*t~>
k5PH`9S*4ps6]ghZ8'_QhLY]rs*t~>
k5PH`9S*4ps6]ghZ8'_QhLY]rs*t~>
k5PH`9S*4ps7$$konnWYGCfd]s*t~>
k5PH`9S*4ps7$$konnWYGCfd]s*t~>
k5PH`9S*4ps7$$konnWYGCfd]s*t~>
k5PH`9S*4ps7-*lo@"TrDh7qTs*t~>
k5PH`9S*4ps7-*lo@"TrDh7qTs*t~>
k5PH`9S*4ps7-*lo@"TrDh7qTs*t~>
k5PH`9S*4ps7-*iNY[3GPlH7~>
k5PH`9S*4ps7-*iNY[3GPlH7~>
k5PH`9S*4ps7-*iNY[3GPlH7~>
k5PH`9S*4ps7H<oiB]bS`.@rQs*t~>
k5PH`9S*4ps7H<oiB]bS`.@rQs*t~>
k5PH`9S*4ps7H<oiB]bS`.@rQs*t~>
k5PH`9S*4ps7ZHrW19&]A#OtYPQ-.~>
k5PH`9S*4ps7ZHrW19&]A#OtYPQ-.~>
k5PH`9S*4ps7ZHrW19&]A#OtYPQ-.~>
k5PH`9S*4ps7uZuqY0_2#VUc/OT0h~>
k5PH`9S*4ps7uZuqY0_2#VUc/OT0h~>
k5PH`9S*4ps7uZuqY0_2#VUc/OT0h~>
k5PH`9S*4ps7uZsB`J.jJcCc1J,~>
k5PH`9S*4ps7uZsB`J.jJcCc1J,~>
k5PH`9S*4ps7uZsB`J.jJcCc1J,~>
k5PH`9S*4ps8;m$b>V>pXK;&Fs,R,0~>
k5PH`9S*4ps8;m$b>V>pXK;&Fs,R,0~>
k5PH`9S*4ps8;m$b>V>pXK;&Fs,R,0~>
k5PH`9S*4ps8Ds#b*#V![t4R;s*t~>
k5PH`9S*4ps8Ds#b*#V![t4R;s*t~>
k5PH`9S*4ps8Ds#b*#V![t4R;s*t~>
k5PH`9S*4ps8Dru=&"8GM#Vu~>
k5PH`9S*4ps8Dru=&"8GM#Vu~>
k5PH`9S*4ps8Dru=&"8GM#Vu~>
k5PH`9S*4prrrFt$4<X)JcCQ+J,~>
k5PH`9S*4prrrFt$4<X)JcCQ+J,~>
k5PH`9S*4prrrFt$4<X)JcCQ+J,~>
k5PH`9S*4rrs&")AU0`5h1>T]s*t~>
k5PH`9S*4rrs&")AU0`5h1>T]s*t~>
k5PH`9S*4rrs&")AU0`5h1>T]s*t~>
k5PH`9S*4trrpZ_[6Hm2JcCE'J,~>
k5PH`9S*4trrpZ_[6Hm2JcCE'J,~>
k5PH`9S*4trrpZ_[6Hm2JcCE'J,~>
k5PH`9S*4trrOqU(P2U;s*t~>
k5PH`9S*4trrOqU(P2U;s*t~>
k5PH`9S*4trrOqU(P2U;s*t~>
k5PH`9S*5"rrn6!*5(=nJcC<$J,~>
k5PH`9S*5"rrn6!*5(=nJcC<$J,~>
k5PH`9S*5"rrn6!*5(=nJcC<$J,~>
k5PH`9S*5#rre..LPP)Es+14Ms*t~>
k5PH`9S*5#rre..LPP)Es+14Ms*t~>
k5PH`9S*5#rre..LPP)Es+14Ms*t~>
k5PH`9S*5&rrhH4dm9FRs+14Js*t~>
k5PH`9S*5&rrhH4dm9FRs+14Js*t~>
k5PH`9S*5&rrhH4dm9FRs+14Js*t~>
k5PH`9S*5&rrZp7!8rG.JcGWIJ,~>
k5PH`9S*5&rrZp7!8rG.JcGWIJ,~>
k5PH`9S*5&rrZp7!8rG.JcGWIJ,~>
k5PH`9S*5'rrb?Cd*VT>s+14Is*t~>
k5PH`9S*5'rrb?Cd*VT>s+14Is*t~>
k5PH`9S*5'rrb?Cd*VT>s+14Is*t~>
k5PH`9S*5*rrfTaMK[$ks+14Fs*t~>
k5PH`9S*5*rrfTaMK[$ks+14Fs*t~>
k5PH`9S*5*rrfTaMK[$ks+14Fs*t~>
k5PH`9S*5-rs&/Xj^&iDoR[$ns7cPD~>
k5PH`9S*5-rs&/Xj^&iDoR[$ns7cPD~>
k5PH`9S*5-rs&/Xj^&iDoR[$ns7cPD~>
k5PH`9S*5-rr\hm!31VMJcGBBJ,~>
k5PH`9S*5-rr\hm!31VMJcGBBJ,~>
k5PH`9S*5-rr\hm!31VMJcGBBJ,~>
k5PH`9S*50rs%jV6#aQPl%/kcs7H>A~>
k5PH`9S*50rs%jV6#aQPl%/kcs7H>A~>
k5PH`9S*50rs%jV6#aQPl%/kcs7H>A~>
k5PH`9S*51rrgc9@q2*]s+14?s*t~>
k5PH`9S*51rrgc9@q2*]s+14?s*t~>
k5PH`9S*51rrgc9@q2*]s+14?s*t~>
k5PH`9S*52rrW"S+G'QDs6fo;~>
k5PH`9S*52rrW"S+G'QDs6fo;~>
k5PH`9S*52rrW"S+G'QDs6fo;~>
k5PH`9S*52rrFfqJcC<$mJh\~>
k5PH`9S*52rrFfqJcC<$mJh\~>
k5PH`9S*52rrFfqJcC<$mJh\~>
k5PH`9S*55rrf/s;k)3ds+14;s*t~>
k5PH`9S*55rrf/s;k)3ds+14;s*t~>
k5PH`9S*55rrf/s;k)3ds+14;s*t~>
k5PH`9S*56rrfi[;,Q2$s+14:s*t~>
k5PH`9S*56rrfi[;,Q2$s+14:s*t~>
k5PH`9S*56rrfi[;,Q2$s+14:s*t~>
k5PH`9S*56rrF0qJcC<$l2Q8~>
k5PH`9S*56rrF0qJcC<$l2Q8~>
k5PH`9S*56rrF0qJcC<$l2Q8~>
k5PH`9S*59rrd-F$JG9,s+147s*t~>
k5PH`9S*59rrd-F$JG9,s+147s*t~>
k5PH`9S*59rrd-F$JG9,s+147s*t~>
k5PH`9S*5<rs$e\AVHSAo7?pms60K5~>
k5PH`9S*5<rs$e\AVHSAo7?pms60K5~>
k5PH`9S*5<rs$e\AVHSAo7?pms60K5~>
k5PH`9S*5?rs&G;^mI>NZ@W%,s5j92~>
k5PH`9S*5?rs&G;^mI>NZ@W%,s5j92~>
k5PH`9S*5?rs&G;^mI>NZ@W%,s5j92~>
k5PH`9S*5?rr`#r!)S7HJcFa0J,~>
k5PH`9S*5?rr`#r!)S7HJcFa0J,~>
k5PH`9S*5?rr`#r!)S7HJcFa0J,~>
k5PH`9S*5ArrlFC,3._MJcC<$ir=N~>
k5PH`9S*5ArrlFC,3._MJcC<$ir=N~>
k5PH`9S*5ArrlFC,3._MJcC<$ir=N~>
k5PH`9S*5Crrhk:K85A9s+14-s*t~>
k5PH`9S*5Crrhk:K85A9s+14-s*t~>
k5PH`9S*5Crrhk:K85A9s+14-s*t~>
k5PH`9S*5Errh**_CWf[s+14+s*t~>
k5PH`9S*5Errh**_CWf[s+14+s*t~>
k5PH`9S*5Errh**_CWf[s+14+s*t~>
k5PH`9S*5ErrOhR)M.p>s4dR(~>
k5PH`9S*5ErrOhR)M.p>s4dR(~>
k5PH`9S*5ErrOhR)M.p>s4dR(~>
k5PH`9S*5Grrh(0ZI%-Qs+14)s*t~>
k5PH`9S*5Grrh(0ZI%-Qs+14)s*t~>
k5PH`9S*5Grrh(0ZI%-Qs+14)s*t~>
k5PH`9S*5Irre[GL3;X0s+14's*t~>
k5PH`9S*5Irre[GL3;X0s+14's*t~>
k5PH`9S*5Irre[GL3;X0s+14's*t~>
k5PH`9S*5LrrqlQjY7Z?JcC<$fDg@~>
k5PH`9S*5LrrqlQjY7Z?JcC<$fDg@~>
k5PH`9S*5LrrqlQjY7Z?JcC<$fDg@~>
k5PH`9S*5LrrZg4!9/S0JcF:#J,~>
k5PH`9S*5LrrZg4!9/S0JcF:#J,~>
k5PH`9S*5LrrZg4!9/S0JcF:#J,~>
k5PH`9S*5Prr@NI5m*([^A*9ZJcF:#J,~>
k5PH`9S*5Prr@NI5m*([^A*9ZJcF:#J,~>
k5PH`9S*5Prr@NI5m*([^A*9ZJcF:#J,~>
k5PH`9S*5Srr^oDS9=g@!5X6dJcF0uJ,~>
k5PH`9S*5Srr^oDS9=g@!5X6dJcF0uJ,~>
k5PH`9S*5Srr^oDS9=g@!5X6dJcF0uJ,~>
k5PH`9S*5Vrs&JspR2?nYCZ_)s3CXp~>
k5PH`9S*5Vrs&JspR2?nYCZ_)s3CXp~>
k5PH`9S*5Vrs&JspR2?nYCZ_)s3CXp~>
k5PH`9S*5Vrr_<^!+^Z\JcEpnJ,~>
k5PH`9S*5Vrr_<^!+^Z\JcEpnJ,~>
k5PH`9S*5Vrr_<^!+^Z\JcEpnJ,~>
k5PH`9S*5WrrfN1XK9Wss+13ns*t~>
k5PH`9S*5WrrfN1XK9Wss+13ns*t~>
k5PH`9S*5WrrfN1XK9Wss+13ns*t~>
k5PH`9S*5ZrrhkpY(L58s+13ks*t~>
k5PH`9S*5ZrrhkpY(L58s+13ks*t~>
k5PH`9S*5ZrrhkpY(L58s+13ks*t~>
k5PH`9S*5Zrr^[L!-WqnJcEdjJ,~>
k5PH`9S*5Zrr^[L!-WqnJcEdjJ,~>
k5PH`9S*5Zrr^[L!-WqnJcEdjJ,~>
k5PH`9S*5\rrjYT2"gP<JcC<$a8^Y~>
k5PH`9S*5\rrjYT2"gP<JcC<$a8^Y~>
k5PH`9S*5\rrjYT2"gP<JcC<$a8^Y~>
k5PH`9S*5_rro*-AX&XbJcC<$`;b>~>
k5PH`9S*5_rro*-AX&XbJcC<$`;b>~>
k5PH`9S*5_rro*-AX&XbJcC<$`;b>~>
k5PH`9S*5brs%f)^i;S'l@Jtds2+ed~>
k5PH`9S*5brs%f)^i;S'l@Jtds2+ed~>
k5PH`9S*5brs%f)^i;S'l@Jtds2+ed~>
k5PH`9S*5brr]A'!1SQ>JcELbJ,~>
k5PH`9S*5brr]A'!1SQ>JcELbJ,~>
k5PH`9S*5brr]A'!1SQ>JcELbJ,~>
k5PH`9S*5crrcn<j5]c_s+13bs*t~>
k5PH`9S*5crrcn<j5]c_s+13bs*t~>
k5PH`9S*5crrcn<j5]c_s+13bs*t~>
k5PH`9S*5frrgGgG_3)Ls+13_s*t~>
k5PH`9S*5frrgGgG_3)Ls+13_s*t~>
k5PH`9S*5frrgGgG_3)Ls+13_s*t~>
k5PH`9S*5irs&>Kduc14]Rg*6s1A;]~>
k5PH`9S*5irs&>Kduc14]Rg*6s1A;]~>
k5PH`9S*5irs&>Kduc14]Rg*6s1A;]~>
k5PH`9S*5irr_9]!+g`]JcE7[J,~>
k5PH`9S*5irr_9]!+g`]JcE7[J,~>
k5PH`9S*5irr_9]!+g`]JcE7[J,~>
k5PH`9S*5krrl=S6."!=JcC<$\Gq'~>
k5PH`9S*5krrl=S6."!=JcC<$\Gq'~>
k5PH`9S*5krrl=S6."!=JcC<$\Gq'~>
k5PH`9S*5nrrp2qMKs>uJcC<$[Jta~>
k5PH`9S*5nrrp2qMKs>uJcC<$[Jta~>
k5PH`9S*5nrrp2qMKs>uJcC<$[Jta~>
k5PH`9S*5orrhM/)B.4Ys+13Vs*t~>
k5PH`9S*5orrhM/)B.4Ys+13Vs*t~>
k5PH`9S*5orrhM/)B.4Ys+13Vs*t~>
k5PH`9S*5orrF$qJcC<$YlB4~>
k5PH`9S*5orrF$qJcC<$YlB4~>
k5PH`9S*5orrF$qJcC<$YlB4~>
k5PH`9S*5rrre3F6*]C"s+13Ss*t~>
k5PH`9S*5rrre3F6*]C"s+13Ss*t~>
k5PH`9S*5rrre3F6*]C"s+13Ss*t~>
k5PH`9S*5urs%>MS9\USmt(Lis0)HQ~>
k5PH`9S*5urs%>MS9\USmt(Lis0)HQ~>
k5PH`9S*5urs%>MS9\USmt(Lis0)HQ~>
k5PH`9S*6"s8VfqW<`d%JcC<$XT*e~>
k5PH`9S*6"s8VfqW<`d%JcC<$XT*e~>
k5PH`9S*6"s8VfqW<`d%JcC<$XT*e~>
k5PH`9S*6#rr_ln!*"OLJcD_LJ,~>
k5PH`9S*6#rr_ln!*"OLJcD_LJ,~>
k5PH`9S*6#rr_ln!*"OLJcD_LJ,~>
k5PH`9S*6%rrmgL=0/LDJcC<$WW.J~>
k5PH`9S*6%rrmgL=0/LDJcC<$WW.J~>
k5PH`9S*6%rrmgL=0/LDJcC<$WW.J~>
k5PH`9S*6'rri%uB2Mc^s+13Is*t~>
k5PH`9S*6'rri%uB2Mc^s+13Is*t~>
k5PH`9S*6'rri%uB2Mc^s+13Is*t~>
k5PH`9S*6'rrV-Z_1DW;s.o[F~>
k5PH`9S*6'rrV-Z_1DW;s.o[F~>
k5PH`9S*6'rrV-Z_1DW;s.o[F~>
k5PH`9S*6)rrb.c-2%4fs+13Gs*t~>
k5PH`9S*6)rrb.c-2%4fs+13Gs*t~>
k5PH`9S*6)rrb.c-2%4fs+13Gs*t~>
k5PH`9S*6,rroH7AW`FXJcC<$UAo`~>
k5PH`9S*6,rroH7AW`FXJcC<$UAo`~>
k5PH`9S*6,rroH7AW`FXJcC<$UAo`~>
k5PH`9S*6/rs%r-^j/./hLY]Xs.KCB~>
k5PH`9S*6/rs%r-^j/./hLY]Xs.KCB~>
k5PH`9S*6/rs%r-^j/./hLY]Xs.KCB~>
k5PH`9S*6/rr]q7!/lF.JcD;@J,~>
k5PH`9S*6/rr]q7!/lF.JcD;@J,~>
k5PH`9S*6/rr]q7!/lF.JcD;@J,~>
k5PH`9S*61rrjSd:ugU,JcC<$Sc=3~>
k5PH`9S*61rrjSd:ugU,JcC<$Sc=3~>
k5PH`9S*61rrjSd:ugU,JcC<$Sc=3~>
k5PH`9S*64rro*@G__'PJcC<$Rf@m~>
k5PH`9S*64rro*@G__'PJcC<$Rf@m~>
k5PH`9S*64rro*@G__'PJcC<$Rf@m~>
k5PH`9S*67rs%l>dpO^XqLSZts-Wh:~>
k5PH`9S*67rs%l>dpO^XqLSZts-Wh:~>
k5PH`9S*67rs%l>dpO^XqLSZts-Wh:~>
k5PH`9S*67rr\Vg!3h%SJcD#8J,~>
k5PH`9S*67rr\Vg!3h%SJcD#8J,~>
k5PH`9S*67rr\Vg!3h%SJcD#8J,~>
k5PH`9S*6:rs%U=06#:bnU^^ks-<V7~>
k5PH`9S*6:rs%U=06#:bnU^^ks-<V7~>
k5PH`9S*6:rs%U=06#:bnU^^ks-<V7~>
k5PH`9S*6;rrgAtF`jg;s+135s*t~>
k5PH`9S*6;rrgAtF`jg;s+135s*t~>
k5PH`9S*6;rrgAtF`jg;s+135s*t~>
k5PH`9S*6>rri2[jb,OCs+132s*t~>
k5PH`9S*6>rri2[jb,OCs+132s*t~>
k5PH`9S*6>rri2[jb,OCs+132s*t~>
k5PH`9S*6>rr^OH!.'4rJcCc1J,~>
k5PH`9S*6>rr^OH!.'4rJcCc1J,~>
k5PH`9S*6>rr^OH!.'4rJcCc1J,~>
k5PH`9S*6@rrl:d=h_W+JcC<$NrOV~>
k5PH`9S*6@rrl:d=h_W+JcC<$NrOV~>
k5PH`9S*6@rrl:d=h_W+JcC<$NrOV~>
k5PH`9S*6Crrp6/S7lD`JcC<$MuS;~>
k5PH`9S*6Crrp6/S7lD`JcC<$MuS;~>
k5PH`9S*6Crrp6/S7lD`JcC<$MuS;~>
k5PH`9S*3Jr:fqp#RKXFs+13,s*t~>
k5PH`9S*3Jr:fqp#RKXFs+13,s*t~>
k5PH`9S*3Jr:fqp#RKXFs+13,s*t~>
k5PH`9S*3GW;lpjJcC<$LAuc~>
k5PH`9S*3GW;lpjJcC<$LAuc~>
k5PH`9S*3GW;lpjJcC<$LAuc~>
k5PH`9SEEMp/=n0XK:?2s+13)s*t~>
k5PH`9SEEMp/=n0XK:?2s+13)s*t~>
k5PH`9SEEMp/=n0XK:?2s+13)s*t~>
k5PH`9Si]Kp&;)rWDQNOJcC<$KE$H~>
k5PH`9Si]Kp&;)rWDQNOJcC<$KE$H~>
k5PH`9Si]Kp&;)rWDQNOJcC<$KE$H~>
k5PH`9Si]Khu3TU%Y=Y2s+11Ms*t~>
k5PH`9Si]Khu3TU%Y=Y2s+11Ms*t~>
k5PH`9Si]Khu3TU%Y=Y2s+11Ms*t~>
k5PH`9T&iO0a]?-on!-os+11Ms*t~>
k5PH`9T&iO0a]?-on!-os+11Ms*t~>
k5PH`9T&iO0a]?-on!-os+11Ms*t~>
k5PH`9TB&UWb#b(R\kZ9JcC<$r;V9~>
k5PH`9TB&UWb#b(R\kZ9JcC<$r;V9~>
k5PH`9TB&UWb#b(R\kZ9JcC<$r;V9~>
k5PH`9T]8Ym_HV_5<n(Ws+13$s8)bG~>
k5PH`9T]8Ym_HV_5<n(Ws+13$s8)bG~>
k5PH`9T]8Ym_HV_5<n(Ws+13$s8)bG~>
k5PH`9T]8V\c;_jJcC<$JcGKEJ,~>
k5PH`9T]8V\c;_jJcC<$JcGKEJ,~>
k5PH`9T]8V\c;_jJcC<$JcGKEJ,~>
k5PH`9ToDZ*un2=j77d$JcC<$p]#a~>
k5PH`9ToDZ*un2=j77d$JcC<$p]#a~>
k5PH`9ToDZ*un2=j77d$JcC<$p]#a~>
k5PH`9U5V]TQk^:LT#e(JcC<$o`'F~>
k5PH`9U5V]TQk^:LT#e(JcC<$o`'F~>
k5PH`9U5V]TQk^:LT#e(JcC<$o`'F~>
k5PH`9UYn\h>Yk*?7[Z*JcC<$JcG<@J,~>
k5PH`9UYn\h>Yk*?7[Z*JcC<$JcG<@J,~>
k5PH`9UYn\h>Yk*?7[Z*JcC<$JcG<@J,~>
k5PH`9UYn\3rT*ZZ[r.-s+14=s*t~>
k5PH`9UYn\3rT*ZZ[r.-s+14=s*t~>
k5PH`9UYn\3rT*ZZ[r.-s+14=s*t~>
k5PH`9V)1`:]<!IXT$QHnU^^ks+14=s*t~>
k5PH`9V)1`:]<!IXT$QHnU^^ks+14=s*t~>
k5PH`9V)1`:]<!IXT$QHnU^^ks+14=s*t~>
k5PH`9VMIdPQ$F>GlDgci.:oZs+149s*t~>
k5PH`9VMIdPQ$F>GlDgci.:oZs+149s*t~>
k5PH`9VMIdPQ$F>GlDgci.:oZs+149s*t~>
k5PH`9Vh[jmcEO\rYbdlJcC<$JcFp5J,~>
k5PH`9Vh[jmcEO\rYbdlJcC<$JcFp5J,~>
k5PH`9Vh[jmcEO\rYbdlJcC<$JcFp5J,~>
k5PH`9Vh[j?2sujJcC<$JcFd1J,~>
k5PH`9Vh[j?2sujJcC<$JcFd1J,~>
k5PH`9Vh[j?2sujJcC<$JcFd1J,~>
k5PH`9W.mp]g4rG^:sGps+13$s5X-0~>
k5PH`9W.mp]g4rG^:sGps+13$s5X-0~>
k5PH`9W.mp]g4rG^:sGps+13$s5X-0~>
k5PH`9WJ*sq4*t2@q3N0s+13$s5<p-~>
k5PH`9WJ*sq4*t2@q3N0s+13$s5<p-~>
k5PH`9WJ*sq4*t2@q3N0s+13$s5<p-~>
k5PH`9X"Hrqu-6kkQhH#JcC<$JcFR+J,~>
k5PH`9X"Hrqu-6kkQhH#JcC<$JcFR+J,~>
k5PH`9X"Hrqu-6kkQhH#JcC<$JcFR+J,~>
k5PH`9X"HrJc,QK&:sk4s+14(s*t~>
k5PH`9X"HrJc,QK&:sk4s+14(s*t~>
k5PH`9X"HrJc,QK&:sk4s+14(s*t~>
k5PH`9XFa!T)MXgJ,QGKZ%;q+s+14(s*t~>
k5PH`9XFa!T)MXgJ,QGKZ%;q+s+14(s*t~>
k5PH`9XFa!T)MXgJ,QGKZ%;q+s+14(s*t~>
k5PH`9Xk$%bPnXEH2^Y@Vh+l!s+14#s*t~>
k5PH`9Xk$%bPnXEH2^Y@Vh+l!s+14#s*t~>
k5PH`9Xk$%bPnXEH2^Y@Vh+l!s+14#s*t~>
k5PH`9Xk$%>lF^'OFdF_s+13ts*t~>
k5PH`9Xk$%>lF^'OFdF_s+13ts*t~>
k5PH`9Xk$%>lF^'OFdF_s+13ts*t~>
k5PH`9Y:<);>pn&T`4Taqgncus+13ts*t~>
k5PH`9Y:<);>pn&T`4Taqgncus+13ts*t~>
k5PH`9Y:<);>pn&T`4Taqgncus+13ts*t~>
k5PH`9Yp`/l25)mMuK.Fg4B9Ts+13ps*t~>
k5PH`9Yp`/l25)mMuK.Fg4B9Ts+13ps*t~>
k5PH`9Yp`/l25)mMuK.Fg4B9Ts+13ps*t~>
k5PH`9Z@#3o)?E)Y5CKaa+=8As+13ls*t~>
k5PH`9Z@#3o)?E)Y5CKaa+=8As+13ls*t~>
k5PH`9Z@#3o)?E)Y5CKaa+=8As+13ls*t~>
k5PH`9Z@#3ao28?,_>uHs+13fs*t~>
k5PH`9Z@#3ao28?,_>uHs+13fs*t~>
k5PH`9Z@#3ao28?,_>uHs+13fs*t~>
k5PH`9Zd;7^A])P8,hNKkCNYas+13fs*t~>
k5PH`9Zd;7^A])P8,hNKkCNYas+13fs*t~>
k5PH`9Zd;7^A])P8,hNKkCNYas+13fs*t~>
k5PH`9[<Y<T)Em6I/\m$Tn35ps+13bs*t~>
k5PH`9[<Y<T)Em6I/\m$Tn35ps+13bs*t~>
k5PH`9[<Y<T)Em6I/\m$Tn35ps+13bs*t~>
k5PH`9\04Dg%s.t>l?2RBn?;8s+13^s*t~>
k5PH`9\04Dg%s.t>l?2RBn?;8s+13^s*t~>
k5PH`9\04Dg%s.t>l?2RBn?;8s+13^s*t~>
k5PH`9\04D,l.K@[XnI0s+13Ys*t~>
k5PH`9\04D,l.K@[XnI0s+13Ys*t~>
k5PH`9\04D,l.K@[XnI0s+13Ys*t~>
k5PH`9\fXJ_Yc%e])'bRnq$herrJ6[JcD5>!Nn<.s*t~>
k5PH`9\fXJ_Yc%e])'bRnq$herrJ6[JcD5>!Nn<.s*t~>
k5PH`9\fXJ_Yc%e])'bRnq$herrJ6[JcD5>!Nn<.s*t~>
k5PH`9]Z3Rbkd1sK`#rmm",2WrrIBqJcD5>!LsGDs*t~>
k5PH`9]Z3Rbkd1sK`#rmm",2WrrIBqJcD5>!LsGDs*t~>
k5PH`9]Z3Rbkd1sK`#rmm",2WrrIBqJcD5>!LsGDs*t~>
k5PH`9^Vi[k5"*=N;=Fm?%N$lrrIBqJcD5>!LsGDs*t~>
k5PH`9^Vi[k5"*=N;=Fm?%N$lrrIBqJcD5>!LsGDs*t~>
k5PH`9^Vi[k5"*=N;=Fm?%N$lrrIBqJcD5>!LsGDs*t~>
k5PH`9^Vi[&GZ;+Dh7r!rrIBqJcD5>!LsGDs*t~>
k5PH`9^Vi[&GZ;+Dh7r!rrIBqJcD5>!LsGDs*t~>
k5PH`9^Vi[&GZ;+Dh7r!rrIBqJcD5>!LsGDs*t~>
k!9"`'CA'c"Si#t*.^Dd5li&8JO,bk!@S#t6%A~>
k!9"`'CA'c"Si#t*.^Dd5li&8JO,bk!@S#t6%A~>
k!9"`'CA'c"Si#t*.^Dd5li&8JO,bk!@S#t6%A~>
k$nE9*e@gj@f\4pJRb0Z!BgP5@t4~>
k$nE9*e@gj@f\4pJRb0Z!BgP5@t4~>
k$nE9*e@gj@f\4pJRb0Z!BgP5@t4~>
k5PH`9S*55rrIBqJcD5>!LsGDs*t~>
k5PH`9S*55rrIBqJcD5>!LsGDs*t~>
k5PH`9S*55rrIBqJcD5>!LsGDs*t~>
k5PH`9S*55rrIBqJcD5>!LsGDs*t~>
k5PH`9S*55rrIBqJcD5>!LsGDs*t~>
k5PH`9S*55rrIBqJcD5>!LsGDs*t~>
k5PH`9S*55rrIBqJcD5>!LsGDs*t~>
k5PH`9S*55rrIBqJcD5>!LsGDs*t~>
k5PH`9S*55rrIBqJcD5>!LsGDs*t~>
k5PH`9S*55rrJm4JcD5>!P;C\s*t~>
k5PH`9S*55rrJm4JcD5>!P;C\s*t~>
k5PH`9S*55rrJm4JcD5>!P;C\s*t~>
k5PH`9S*4ps+13%s*t~>
k5PH`9S*4ps+13%s*t~>
k5PH`9S*4ps+13%s*t~>
k5PH`9S*4ps+13%s*t~>
k5PH`9S*4ps+13%s*t~>
k5PH`9S*4ps+13%s*t~>
k5PH`9S*4ps+13%s*t~>
k5PH`9S*4ps+13%s*t~>
k5PH`9S*4ps+13%s*t~>
k5PH`9S*4ps+13%s*t~>
k5PH`9S*4ps+13%s*t~>
k5PH`9S*4ps+13%s*t~>
k5PH`9S*4ps+13%s*t~>
k5PH`9S*4ps+13%s*t~>
k5PH`9S*4ps+13%s*t~>
k5PH`9S*4ps+13%s*t~>
k5PH`9S*4ps+13%s*t~>
k5PH`9S*4ps+13%s*t~>
o)A]GrHJ=Lqu6[u9S*56rrRt#Ne.5'rrA/YGQ<->s*t~>
o)A]GrHJ=Lqu6[u9S*56rrRt#Ne.5'rrA/YGQ<->s*t~>
o)A]GrHJ=Lqu6[u9S*56rrRt#Ne.5'rrA/YGQ<->s*t~>
o`#!cdm<p`!I!&lrrH1pJcDDC!7_"s!^IJNJcDJE!r(/9r%%n)e*tleJ,~>
o`#!cdm<p`!I!&lrrH1pJcDDC!7_"s!^IJNJcDJE!r(/9r%%n)e*tleJ,~>
o`#!cdm<p`!I!&lrrH1pJcDDC!7_"s!^IJNJcDJE!r(/9r%%n)e*tleJ,~>
o`#!2!8mbT!KIrnrrH1pJcDDC!"8c+!o\DTJcDJE!n%(rr;Qim!3F]MJ,~>
o`#!2!8mbT!KIrnrrH1pJcDDC!"8c+!o\DTJcDJE!n%(rr;Qim!3F]MJ,~>
o`#!2!8mbT!KIrnrrH1pJcDDC!"8c+!o\DTJcDJE!n%(rr;Qim!3F]MJ,~>
o`#!2!8mbT!KIrnrrH1pJcDDC!7Lkn!r@0mJcDMF"-?1&p\b$nrm5.oec1.~>
o`#!2!8mbT!KIrnrrH1pJcDDC!7Lkn!r@0mJcDMF"-?1&p\b$nrm5.oec1.~>
o`#!2!8mbT!KIrnrrH1pJcDDC!7Lkn!r@0mJcDMF"-?1&p\b$nrm5.oec1.~>
p&>-*Kluh^rr^,^MVnF5!EVsGs-s#hGq4IGU]1@=/bo>H;c2*FJ,~>
p&>-*Kluh^rr^,^MVnF5!EVsGs-s#hGq4IGU]1@=/bo>H;c2*FJ,~>
p&>-*Kluh^rr^,^MVnF5!EVsGs-s#hGq4IGU]1@=/bo>H;c2*FJ,~>
p&>&,48SsYklA<orrH1pJcD5>!I62Hs.fSpKgYY8!E2kGs*t~>
p&>&,48SsYklA<orrH1pJcD5>!I62Hs.fSpKgYY8!E2kGs*t~>
p&>&,48SsYklA<orrH1pJcD5>!I62Hs.fSpKgYY8!E2kGs*t~>
p&>&,48SsYklA<orrH1pJcD5>!I62Hs-Wfe;c2*FJ,~>
p&>&,48SsYklA<orrH1pJcD5>!I62Hs-Wfe;c2*FJ,~>
p&>&,48SsYklA<orrH1pJcD5>!I62Hs-Wfe;c2*FJ,~>
p&>&,48SsYklA<orrH1pJcD5>!I62Hs-Wfe;c2*FJ,~>
p&>&,48SsYklA<orrH1pJcD5>!I62Hs-Wfe;c2*FJ,~>
p&>&,48SsYklA<orrH1pJcD5>!I62Hs-Wfe;c2*FJ,~>
p&>&,48SsYklA<orrH1pJcD5>!I62Hs-irir1%qpec1.~>
p&>&,48SsYklA<orrH1pJcD5>!I62Hs-irir1%qpec1.~>
p&>&,48SsYklA<orrH1pJcD5>!I62Hs-irir1%qpec1.~>
p&>&,48SsYklA<orrH1pJcD5>!I62Hs-s#jr9supeGk%~>
p&>&,48SsYklA<orrH1pJcD5>!I62Hs-s#jr9supeGk%~>
p&>&,48SsYklA<orrH1pJcD5>!I62Hs-s#jr9supeGk%~>
p&>&,48SsYklA<orrH1pJcD5>!I62Hs-s#hS-[RCJ,~>
p&>&,48SsYklA<orrH1pJcD5>!I62Hs-s#hS-[RCJ,~>
p&>&,48SsYklA<orrH1pJcD5>!I62Hs-s#hS-[RCJ,~>
p&>&,48SsYklA<orrH1pJcD5>!I62Hs.')jIs/$Ds*t~>
p&>&,48SsYklA<orrH1pJcD5>!I62Hs.')jIs/$Ds*t~>
p&>&,48SsYklA<orrH1pJcD5>!I62Hs.')jIs/$Ds*t~>
p&>&,48SsYklA<orrH1pJcD5>!I62Hs.95mpTA1pdJn^~>
p&>&,48SsYklA<orrH1pJcD5>!I62Hs.95mpTA1pdJn^~>
p&>&,48SsYklA<orrH1pJcD5>!I62Hs.95mpTA1pdJn^~>
p&>&,48SsYklA<orrH1pJcD5>!I62Hs.95lj8cp@s*t~>
p&>&,48SsYklA<orrH1pJcD5>!I62Hs.95lj8cp@s*t~>
p&>&,48SsYklA<orrH1pJcD5>!I62Hs.95lj8cp@s*t~>
p&>&,48SsYklA<orrH1pJcD5>!I62Hs.B;nN[+5pd/SU~>
p&>&,48SsYklA<orrH1pJcD5>!I62Hs.B;nN[+5pd/SU~>
p&>&,48SsYklA<orrH1pJcD5>!I62Hs.B;nN[+5pd/SU~>
p&>&,48SsYklA<orrH1pJcD5>!I62Hs.KAnJUO?>s*t~>
p&>&,48SsYklA<orrH1pJcD5>!I62Hs.KAnJUO?>s*t~>
p&>&,48SsYklA<orrH1pJcD5>!I62Hs.KAnJUO?>s*t~>
p&>,R?,645rr_;h5Kj'+!EVsGs-s#hGq4IGUAk>f^fHfHs*t~>
p&>,R?,645rr_;h5Kj'+!EVsGs-s#hGq4IGUAk>f^fHfHs*t~>
p&>,R?,645rr_;h5Kj'+!EVsGs-s#hGq4IGUAk>f^fHfHs*t~>
o`#!2!8mbT!KIrnrrH1pJcD5>!I62Hs.]MpdK%\=s*t~>
o`#!2!8mbT!KIrnrrH1pJcD5>!I62Hs.]MpdK%\=s*t~>
o`#!2!8mbT!KIrnrrH1pJcD5>!I62Hs.]MpdK%\=s*t~>
o`#!2!8mbT!KIrnrrH1pJcD5>!I62Hs.fSrL-O_pqYpS.AC^^1~>
o`#!2!8mbT!KIrnrrH1pJcD5>!I62Hs.fSrL-O_pqYpS.AC^^1~>
o`#!2!8mbT!KIrnrrH1pJcD5>!I62Hs.fSrL-O_pqYpS.AC^^1~>
o`#!QLjArC!Ip:1rrH1pJcDDC!.Ffi!BCklG6$ELs/H#!G89ms!@Laps*t~>
o`#!QLjArC!Ip:1rrH1pJcDDC!.Ffi!BCklG6$ELs/H#!G89ms!@Laps*t~>
o`#!QLjArC!Ip:1rrH1pJcDDC!.Ffi!BCklG6$ELs/H#!G89ms!@Laps*t~>
o)A\[r@@r+qu6[u9S*5:rr=tN/-*bBs/H"uO7k+)Dq4l<~>
o)A\[r@@r+qu6[u9S*5:rr=tN/-*bBs/H"uO7k+)Dq4l<~>
o)A\[r@@r+qu6[u9S*5:rr=tN/-*bBs/H"uO7k+)Dq4l<~>
%%EndData
showpage
%%Trailer
end
%%EOF
