%!PS
%%BoundingBox: -1 -1 270 108 
%%HiResBoundingBox: -0.25 -0.25 269.54129 107.9666 
%%Creator: MetaPost 1.504
%%CreationDate: 2013.03.02:0926
%%Pages: 1
%*Font: lmmi12 11.95517 11.95517 78:c
%*Font: rm-lmr12 11.95517 11.95517 2d:9b
%%BeginProlog
%%EndProlog
%%Page: 1 1
 0 0 0 setrgbcolor 0 0.5 dtransform truncate idtransform setlinewidth pop
 [] 0 setdash 1 setlinejoin 10 setmiterlimit
newpath 0 0 moveto
269.29129 0 lineto
269.29129 107.7166 lineto
0 107.7166 lineto
 closepath stroke
 0.5 0 dtransform exch truncate exch idtransform pop setlinewidth 1 setlinecap
newpath 42.51968 0 moveto
42.51968 107.7166 lineto stroke
 0 0.5 dtransform truncate idtransform setlinewidth pop
newpath 0 85.03935 moveto
269.29129 85.03935 lineto stroke
newpath 0 0 moveto
269.29129 0 lineto stroke
17.93379 93.80406 moveto
(x) lmmi12 11.95517 fshow
48.98053 92.61351 moveto
(-3) rm-lmr12 11.95517 fshow
255.02638 92.61351 moveto
(3) rm-lmr12 11.95517 fshow
152.97899 92.61351 moveto
(1) rm-lmr12 11.95517 fshow
18.19154 41.10829 moveto
(y) lmmi12 11.95517 fshow
50.93158 2.61388 moveto
(0) rm-lmr12 11.95517 fshow
newpath 65.19693 12.04733 moveto
144.56708 69.37778 lineto stroke
newpath 142.46797 65.9735 moveto
144.56708 69.37778 lineto
140.67558 68.45494 lineto
 closepath
gsave fill grestore stroke
152.97899 71.28317 moveto
(4) rm-lmr12 11.95517 fshow
newpath 167.24388 69.37778 moveto
246.61403 12.04733 lineto stroke
newpath 242.72253 12.97017 moveto
246.61403 12.04733 lineto
244.51492 15.45161 lineto
 closepath
gsave fill grestore stroke
255.02638 2.61388 moveto
(0) rm-lmr12 11.95517 fshow
showpage
%%EOF
