%!PS
%%BoundingBox: -1 -1 242 108 
%%HiResBoundingBox: -0.25 -0.25 241.19484 107.9666 
%%Creator: MetaPost 1.504
%%CreationDate: 2013.03.02:0926
%%Pages: 1
%*Font: lmmi12 11.95517 11.95517 78:c
%*Font: rm-lmr12 11.95517 11.95517 2d:9e
%*Font: lmsy10 11.95514 9.96265 00:8
%*Font: lmsy8 7.97011 7.97011 30:8
%%BeginProlog
%%EndProlog
%%Page: 1 1
 0 0 0 setrgbcolor 0 0.5 dtransform truncate idtransform setlinewidth pop
 [] 0 setdash 1 setlinejoin 10 setmiterlimit
newpath 0 0 moveto
240.94484 0 lineto
240.94484 107.7166 lineto
0 107.7166 lineto
 closepath stroke
 0.5 0 dtransform exch truncate exch idtransform pop setlinewidth 1 setlinecap
newpath 42.51968 0 moveto
42.51968 107.7166 lineto stroke
 0 0.5 dtransform truncate idtransform setlinewidth pop
newpath 0 85.03935 moveto
240.94484 85.03935 lineto stroke
newpath 0 0 moveto
240.94484 0 lineto stroke
17.93379 93.80406 moveto
(x) lmmi12 11.95517 fshow
47.56355 92.61351 moveto
(-3) rm-lmr12 11.95517 fshow
228.09691 92.61351 moveto
(3) rm-lmr12 11.95517 fshow
134.1565 93.11166 moveto
(\000) lmsy10 11.95514 fshow
143.45499 93.11166 moveto
(1) rm-lmr12 11.95517 fshow
16.79399 39.29884 moveto
(y) lmmi12 11.95517 fshow
22.93059 43.63724 moveto
(0) lmsy8 7.97011 fshow
49.5146 2.61388 moveto
(0) rm-lmr12 11.95517 fshow
newpath 62.3621 12.04733 moveto
131.81082 69.37778 lineto stroke
newpath 129.93541 65.84459 moveto
131.81082 69.37778 lineto
127.98634 68.20561 lineto
 closepath
gsave fill grestore stroke
138.80576 71.28317 moveto
(2) rm-lmr12 11.95517 fshow
newpath 151.65369 69.37778 moveto
221.1024 12.04733 lineto stroke
newpath 217.27792 13.2195 moveto
221.1024 12.04733 lineto
219.22699 15.58052 lineto
 closepath
gsave fill grestore stroke
226.14586 2.61388 moveto
(-3) rm-lmr12 11.95517 fshow
showpage
%%EOF
