%!PS
%%BoundingBox: -1 -1 270 108 
%%HiResBoundingBox: -0.25 -0.25 269.54129 107.9666 
%%Creator: MetaPost 1.208
%%CreationDate: 2013.03.02:2015
%%Pages: 1
%*Font: lmmi12 11.95517 11.95517 78:c
%*Font: rm-lmr12 11.95517 11.95517 2c:cfa
%*Font: lmsy8 7.97011 7.97011 30:8
%%BeginProlog
%%EndProlog
%%Page: 1 1
 0 0 0 setrgbcolor 0 0.5 dtransform truncate idtransform setlinewidth pop
 [] 0 setdash 1 setlinejoin 10 setmiterlimit
newpath 0 0 moveto
269.29129 0 lineto
269.29129 107.7166 lineto
0 107.7166 lineto
 closepath stroke
 0.5 0 dtransform exch truncate exch idtransform pop setlinewidth 1 setlinecap
newpath 42.51968 0 moveto
42.51968 107.7166 lineto stroke
 0 0.5 dtransform truncate idtransform setlinewidth pop
newpath 0 85.03935 moveto
269.29129 85.03935 lineto stroke
newpath 0 56.6929 moveto
269.29129 56.6929 lineto stroke
newpath 0 28.34645 moveto
269.29129 28.34645 lineto stroke
newpath 0 0 moveto
269.29129 0 lineto stroke
17.93379 93.80406 moveto
(x) lmmi12 11.95517 fshow
50.93158 92.61351 moveto
(0) rm-lmr12 11.95517 fshow
255.02638 92.61351 moveto
(4) rm-lmr12 11.95517 fshow
16.79399 39.29884 moveto
(y) lmmi12 11.95517 fshow
22.93059 43.63724 moveto
(0) lmsy8 7.97011 fshow
50.93158 38.75543 moveto
(1) rm-lmr12 11.95517 fshow
255.02638 38.75543 moveto
(1) rm-lmr12 11.95517 fshow
15.6455 10.9524 moveto
(y) lmmi12 11.95517 fshow
21.78209 15.29079 moveto
(00) lmsy8 7.97011 fshow
104.7901 92.61351 moveto
(1) rm-lmr12 11.95517 fshow
152.97899 92.61351 moveto
(2) rm-lmr12 11.95517 fshow
201.16786 92.61351 moveto
(3) rm-lmr12 11.95517 fshow
104.7901 38.75543 moveto
(0) rm-lmr12 11.95517 fshow
newpath 89.29115 42.51968 moveto
77.95274 42.51968 lineto stroke
 0.5 0 dtransform exch truncate exch idtransform pop setlinewidth
newpath 83.62195 48.18887 moveto
83.62195 36.85048 lineto stroke
151.02794 38.75543 moveto
(-1) rm-lmr12 11.95517 fshow
 0 0.5 dtransform truncate idtransform setlinewidth pop
newpath 137.48045 42.51968 moveto
126.14162 42.51968 lineto stroke
201.16786 38.75543 moveto
(0) rm-lmr12 11.95517 fshow
newpath 185.66934 42.51968 moveto
174.3305 42.51968 lineto stroke
newpath 233.85822 42.51968 moveto
222.5198 42.51968 lineto stroke
 0.5 0 dtransform exch truncate exch idtransform pop setlinewidth
newpath 228.18901 48.18887 moveto
228.18901 36.85048 lineto stroke
 0 0.5 dtransform truncate idtransform setlinewidth pop
newpath 89.29115 14.17323 moveto
77.95274 14.17323 lineto stroke
152.97899 10.40898 moveto
(0) rm-lmr12 11.95517 fshow
newpath 137.48045 14.17323 moveto
126.14162 14.17323 lineto stroke
newpath 185.66934 14.17323 moveto
174.3305 14.17323 lineto stroke
 0.5 0 dtransform exch truncate exch idtransform pop setlinewidth
newpath 180.00014 19.84242 moveto
180.00014 8.50403 lineto stroke
 0 0.5 dtransform truncate idtransform setlinewidth pop
newpath 233.85822 14.17323 moveto
222.5198 14.17323 lineto stroke
 0.5 0 dtransform exch truncate exch idtransform pop setlinewidth
newpath 228.18901 19.84242 moveto
228.18901 8.50403 lineto stroke
18.19154 69.45474 moveto
(y) lmmi12 11.95517 fshow
50.93158 67.10188 moveto
(0) rm-lmr12 11.95517 fshow
97.31114 68.26419 moveto
(0,63) rm-lmr12 11.95517 fshow
152.97899 67.10188 moveto
(0) rm-lmr12 11.95517 fshow
191.7379 68.26419 moveto
(-0,63) rm-lmr12 11.95517 fshow
255.02638 67.10188 moveto
(0) rm-lmr12 11.95517 fshow
showpage
%%EOF
